[
  {
    "description": "Bugfix: Separate required variables for package-only and deploy-only.",
    "type": "patch"
  },
  {
    "description": "Bump aws-sam-cli 0.17.0 -> 0.53.0.",
    "type": "minor"
  }
]